26

    N   -7.571   22.890   15.592
    H   -7.082   22.038   15.824
    C   -9.022   22.902   15.657
    H   -9.452   23.139   14.684
    C   -9.556   21.572   16.150
    H  -10.644   21.559   16.057
    H   -9.167   20.785   15.501
    C   -9.180   21.230   17.520
    H   -8.873   20.184   17.581
    H   -8.368   21.878   17.843
    C  -10.393   21.440   18.359
    H  -10.113   21.371   19.405
    H  -10.805   22.428   18.156
    N  -11.397   20.434   18.091
    H  -12.051   20.609   17.341
    C  -11.466   19.283   18.730
    N  -12.419   18.407   18.427
    H  -13.085   18.607   17.701
    H  -12.430   17.520   18.909
    N  -10.573   19.010   19.673
    H  -10.611   18.120   20.139
    H   -9.851   19.673   19.898
    C   -9.476   23.935   16.649
    O  -10.404   24.705   16.375
    H   -8.981   24.003   17.616
    H   -7.053   23.711   15.321
